// Jest Snapshot v1, https://goo.gl/fbAQLP

exports[`Redux store should handle GENERATE action 1`] = `
Object {
  "randomBoxes": ArrayContaining [
    Object {
      "backgroundColor": Any<String>,
      "value": Any<Number>,
    },
  ],
}
`;

exports[`Redux store should have correct initial state 1`] = `
Object {
  "randomBoxes": ArrayContaining [
    Object {
      "backgroundColor": Any<String>,
      "value": Any<Number>,
    },
  ],
}
`;
